{
  "images" : [
    {
      "idiom" : "universal",
      "scale" : "1x",
      "filename" : "readingBtn.png"
    },
    {
      "idiom" : "universal",
      "scale" : "2x",
      "filename" : "readingBtn@x2.png"
    },
    {
      "idiom" : "universal",
      "scale" : "3x",
      "filename" : "readingBtn@x3.png"
    }
  ],
  "info" : {
    "version" : 1,
    "author" : "xcode"
  }
}