{
  "images" : [
    {
      "idiom" : "universal",
      "scale" : "1x",
      "filename" : "bg_land1.png"
    },
    {
      "idiom" : "universal",
      "scale" : "2x",
      "filename" : "bg_land-1.png"
    },
    {
      "idiom" : "universal",
      "scale" : "3x",
      "filename" : "bg_land@x3.png"
    }
  ],
  "info" : {
    "version" : 1,
    "author" : "xcode"
  }
}